<?xml version="1.0" standalone="no"?>
<!DOCTYPE svg PUBLIC "-//W3C//DTD SVG 1.1//EN" "http://www.w3.org/Graphics/SVG/1.1/DTD/svg11.dtd">
<!-- Created with WaveDrom -->
<svg id="svgcontent_0" xmlns="http://www.w3.org/2000/svg" xmlns:xlink="http://www.w3.org/1999/xlink" height="90" viewBox="0 0 600 90" width="600" overflow="hidden"><style type="text/css">text{font-size:11pt;font-style:normal;font-variant:normal;font-weight:normal;font-stretch:normal;text-align:center;fill-opacity:1;font-family:Helvetica}.muted{fill:#aaa}.warning{fill:#f6b900}.error{fill:#f60000}.info{fill:#0041c4}.success{fill:#00ab00}.h1{font-size:33pt;font-weight:bold}.h2{font-size:27pt;font-weight:bold}.h3{font-size:20pt;font-weight:bold}.h4{font-size:14pt;font-weight:bold}.h5{font-size:11pt;font-weight:bold}.h6{font-size:8pt;font-weight:bold}.s1{fill:none;stroke:#000;stroke-width:1;stroke-linecap:round;stroke-linejoin:miter;stroke-miterlimit:4;stroke-opacity:1;stroke-dasharray:none}.s2{fill:none;stroke:#000;stroke-width:0.5;stroke-linecap:round;stroke-linejoin:miter;stroke-miterlimit:4;stroke-opacity:1;stroke-dasharray:none}.s3{color:#000;fill:none;stroke:#000;stroke-width:1;stroke-linecap:round;stroke-linejoin:miter;stroke-miterlimit:4;stroke-opacity:1;stroke-dasharray:1, 3;stroke-dashoffset:0;marker:none;visibility:visible;display:inline;overflow:visible;enable-background:accumulate}.s4{color:#000;fill:none;stroke:#000;stroke-width:1;stroke-linecap:round;stroke-linejoin:miter;stroke-miterlimit:4;stroke-opacity:1;stroke-dasharray:none;stroke-dashoffset:0;marker:none;visibility:visible;display:inline;overflow:visible}.s5{fill:#fff;stroke:none}.s6{color:#000;fill:#ffffb4;fill-opacity:1;fill-rule:nonzero;stroke:none;stroke-width:1px;marker:none;visibility:visible;display:inline;overflow:visible;enable-background:accumulate}.s7{color:#000;fill:#ffe0b9;fill-opacity:1;fill-rule:nonzero;stroke:none;stroke-width:1px;marker:none;visibility:visible;display:inline;overflow:visible;enable-background:accumulate}.s8{color:#000;fill:#b9e0ff;fill-opacity:1;fill-rule:nonzero;stroke:none;stroke-width:1px;marker:none;visibility:visible;display:inline;overflow:visible;enable-background:accumulate}.s9{fill:#000;fill-opacity:1;stroke:none}.s10{color:#000;fill:#fff;fill-opacity:1;fill-rule:nonzero;stroke:none;stroke-width:1px;marker:none;visibility:visible;display:inline;overflow:visible;enable-background:accumulate}.s11{fill:#0041c4;fill-opacity:1;stroke:none}.s12{fill:none;stroke:#0041c4;stroke-width:1;stroke-linecap:round;stroke-linejoin:miter;stroke-miterlimit:4;stroke-opacity:1;stroke-dasharray:none}</style><defs><g id="socket"><rect y="15" x="6" height="20" width="20"/></g><g id="pclk"><path d="M0,20 0,0 20,0" class="s1"/></g><g id="nclk"><path d="m0,0 0,20 20,0" class="s1"/></g><g id="000"><path d="m0,20 20,0" class="s1"/></g><g id="0m0"><path d="m0,20 3,0 3,-10 3,10 11,0" class="s1"/></g><g id="0m1"><path d="M0,20 3,20 9,0 20,0" class="s1"/></g><g id="0mx"><path d="M3,20 9,0 20,0" class="s1"/><path d="m20,15 -5,5" class="s2"/><path d="M20,10 10,20" class="s2"/><path d="M20,5 5,20" class="s2"/><path d="M20,0 4,16" class="s2"/><path d="M15,0 6,9" class="s2"/><path d="M10,0 9,1" class="s2"/><path d="m0,20 20,0" class="s1"/></g><g id="0md"><path d="m8,20 10,0" class="s3"/><path d="m0,20 5,0" class="s1"/></g><g id="0mu"><path d="m0,20 3,0 C 7,10 10.107603,0 20,0" class="s1"/></g><g id="0mz"><path d="m0,20 3,0 C 10,10 15,10 20,10" class="s1"/></g><g id="111"><path d="M0,0 20,0" class="s1"/></g><g id="1m0"><path d="m0,0 3,0 6,20 11,0" class="s1"/></g><g id="1m1"><path d="M0,0 3,0 6,10 9,0 20,0" class="s1"/></g><g id="1mx"><path d="m3,0 6,20 11,0" class="s1"/><path d="M0,0 20,0" class="s1"/><path d="m20,15 -5,5" class="s2"/><path d="M20,10 10,20" class="s2"/><path d="M20,5 8,17" class="s2"/><path d="M20,0 7,13" class="s2"/><path d="M15,0 6,9" class="s2"/><path d="M10,0 5,5" class="s2"/><path d="M3.5,1.5 5,0" class="s2"/></g><g id="1md"><path d="m0,0 3,0 c 4,10 7,20 17,20" class="s1"/></g><g id="1mu"><path d="M0,0 5,0" class="s1"/><path d="M8,0 18,0" class="s3"/></g><g id="1mz"><path d="m0,0 3,0 c 7,10 12,10 17,10" class="s1"/></g><g id="xxx"><path d="m0,20 20,0" class="s1"/><path d="M0,0 20,0" class="s1"/><path d="M0,5 5,0" class="s2"/><path d="M0,10 10,0" class="s2"/><path d="M0,15 15,0" class="s2"/><path d="M0,20 20,0" class="s2"/><path d="M5,20 20,5" class="s2"/><path d="M10,20 20,10" class="s2"/><path d="m15,20 5,-5" class="s2"/></g><g id="xm0"><path d="M0,0 4,0 9,20" class="s1"/><path d="m0,20 20,0" class="s1"/><path d="M0,5 4,1" class="s2"/><path d="M0,10 5,5" class="s2"/><path d="M0,15 6,9" class="s2"/><path d="M0,20 7,13" class="s2"/><path d="M5,20 8,17" class="s2"/></g><g id="xm1"><path d="M0,0 20,0" class="s1"/><path d="M0,20 4,20 9,0" class="s1"/><path d="M0,5 5,0" class="s2"/><path d="M0,10 9,1" class="s2"/><path d="M0,15 7,8" class="s2"/><path d="M0,20 5,15" class="s2"/></g><g id="xmx"><path d="m0,20 20,0" class="s1"/><path d="M0,0 20,0" class="s1"/><path d="M0,5 5,0" class="s2"/><path d="M0,10 10,0" class="s2"/><path d="M0,15 15,0" class="s2"/><path d="M0,20 20,0" class="s2"/><path d="M5,20 20,5" class="s2"/><path d="M10,20 20,10" class="s2"/><path d="m15,20 5,-5" class="s2"/></g><g id="xmd"><path d="m0,0 4,0 c 3,10 6,20 16,20" class="s1"/><path d="m0,20 20,0" class="s1"/><path d="M0,5 4,1" class="s2"/><path d="M0,10 5.5,4.5" class="s2"/><path d="M0,15 6.5,8.5" class="s2"/><path d="M0,20 8,12" class="s2"/><path d="m5,20 5,-5" class="s2"/><path d="m10,20 2.5,-2.5" class="s2"/></g><g id="xmu"><path d="M0,0 20,0" class="s1"/><path d="m0,20 4,0 C 7,10 10,0 20,0" class="s1"/><path d="M0,5 5,0" class="s2"/><path d="M0,10 10,0" class="s2"/><path d="M0,15 10,5" class="s2"/><path d="M0,20 6,14" class="s2"/></g><g id="xmz"><path d="m0,0 4,0 c 6,10 11,10 16,10" class="s1"/><path d="m0,20 4,0 C 10,10 15,10 20,10" class="s1"/><path d="M0,5 4.5,0.5" class="s2"/><path d="M0,10 6.5,3.5" class="s2"/><path d="M0,15 8.5,6.5" class="s2"/><path d="M0,20 11.5,8.5" class="s2"/></g><g id="ddd"><path d="m0,20 20,0" class="s3"/></g><g id="dm0"><path d="m0,20 10,0" class="s3"/><path d="m12,20 8,0" class="s1"/></g><g id="dm1"><path d="M0,20 3,20 9,0 20,0" class="s1"/></g><g id="dmx"><path d="M3,20 9,0 20,0" class="s1"/><path d="m20,15 -5,5" class="s2"/><path d="M20,10 10,20" class="s2"/><path d="M20,5 5,20" class="s2"/><path d="M20,0 4,16" class="s2"/><path d="M15,0 6,9" class="s2"/><path d="M10,0 9,1" class="s2"/><path d="m0,20 20,0" class="s1"/></g><g id="dmd"><path d="m0,20 20,0" class="s3"/></g><g id="dmu"><path d="m0,20 3,0 C 7,10 10.107603,0 20,0" class="s1"/></g><g id="dmz"><path d="m0,20 3,0 C 10,10 15,10 20,10" class="s1"/></g><g id="uuu"><path d="M0,0 20,0" class="s3"/></g><g id="um0"><path d="m0,0 3,0 6,20 11,0" class="s1"/></g><g id="um1"><path d="M0,0 10,0" class="s3"/><path d="m12,0 8,0" class="s1"/></g><g id="umx"><path d="m3,0 6,20 11,0" class="s1"/><path d="M0,0 20,0" class="s1"/><path d="m20,15 -5,5" class="s2"/><path d="M20,10 10,20" class="s2"/><path d="M20,5 8,17" class="s2"/><path d="M20,0 7,13" class="s2"/><path d="M15,0 6,9" class="s2"/><path d="M10,0 5,5" class="s2"/><path d="M3.5,1.5 5,0" class="s2"/></g><g id="umd"><path d="m0,0 3,0 c 4,10 7,20 17,20" class="s1"/></g><g id="umu"><path d="M0,0 20,0" class="s3"/></g><g id="umz"><path d="m0,0 3,0 c 7,10 12,10 17,10" class="s4"/></g><g id="zzz"><path d="m0,10 20,0" class="s1"/></g><g id="zm0"><path d="m0,10 6,0 3,10 11,0" class="s1"/></g><g id="zm1"><path d="M0,10 6,10 9,0 20,0" class="s1"/></g><g id="zmx"><path d="m6,10 3,10 11,0" class="s1"/><path d="M0,10 6,10 9,0 20,0" class="s1"/><path d="m20,15 -5,5" class="s2"/><path d="M20,10 10,20" class="s2"/><path d="M20,5 8,17" class="s2"/><path d="M20,0 7,13" class="s2"/><path d="M15,0 6.5,8.5" class="s2"/><path d="M10,0 9,1" class="s2"/></g><g id="zmd"><path d="m0,10 7,0 c 3,5 8,10 13,10" class="s1"/></g><g id="zmu"><path d="m0,10 7,0 C 10,5 15,0 20,0" class="s1"/></g><g id="zmz"><path d="m0,10 20,0" class="s1"/></g><g id="gap"><path d="m7,-2 -4,0 c -5,0 -5,24 -10,24 l 4,0 C 2,22 2,-2 7,-2 z" class="s5"/><path d="M-7,22 C -2,22 -2,-2 3,-2" class="s1"/><path d="M-3,22 C 2,22 2,-2 7,-2" class="s1"/></g><g id="0mv-3"><path d="M9,0 20,0 20,20 3,20 z" class="s6"/><path d="M3,20 9,0 20,0" class="s1"/><path d="m0,20 20,0" class="s1"/></g><g id="1mv-3"><path d="M2.875,0 20,0 20,20 9,20 z" class="s6"/><path d="m3,0 6,20 11,0" class="s1"/><path d="M0,0 20,0" class="s1"/></g><g id="xmv-3"><path d="M9,0 20,0 20,20 9,20 6,10 z" class="s6"/><path d="M0,20 3,20 9,0 20,0" class="s1"/><path d="m0,0 3,0 6,20 11,0" class="s1"/><path d="M0,5 3.5,1.5" class="s2"/><path d="M0,10 4.5,5.5" class="s2"/><path d="M0,15 6,9" class="s2"/><path d="M0,20 4,16" class="s2"/></g><g id="dmv-3"><path d="M9,0 20,0 20,20 3,20 z" class="s6"/><path d="M3,20 9,0 20,0" class="s1"/><path d="m0,20 20,0" class="s1"/></g><g id="umv-3"><path d="M3,0 20,0 20,20 9,20 z" class="s6"/><path d="m3,0 6,20 11,0" class="s1"/><path d="M0,0 20,0" class="s1"/></g><g id="zmv-3"><path d="M9,0 20,0 20,20 9,20 6,10 z" class="s6"/><path d="m6,10 3,10 11,0" class="s1"/><path d="M0,10 6,10 9,0 20,0" class="s1"/></g><g id="vvv-3"><path d="M20,20 0,20 0,0 20,0" class="s6"/><path d="m0,20 20,0" class="s1"/><path d="M0,0 20,0" class="s1"/></g><g id="vm0-3"><path d="M0,20 0,0 3,0 9,20" class="s6"/><path d="M0,0 3,0 9,20" class="s1"/><path d="m0,20 20,0" class="s1"/></g><g id="vm1-3"><path d="M0,0 0,20 3,20 9,0" class="s6"/><path d="M0,0 20,0" class="s1"/><path d="M0,20 3,20 9,0" class="s1"/></g><g id="vmx-3"><path d="M0,0 0,20 3,20 6,10 3,0" class="s6"/><path d="m0,0 3,0 6,20 11,0" class="s1"/><path d="M0,20 3,20 9,0 20,0" class="s1"/><path d="m20,15 -5,5" class="s2"/><path d="M20,10 10,20" class="s2"/><path d="M20,5 8,17" class="s2"/><path d="M20,0 7,13" class="s2"/><path d="M15,0 7,8" class="s2"/><path d="M10,0 9,1" class="s2"/></g><g id="vmd-3"><path d="m0,0 0,20 20,0 C 10,20 7,10 3,0" class="s6"/><path d="m0,0 3,0 c 4,10 7,20 17,20" class="s1"/><path d="m0,20 20,0" class="s1"/></g><g id="vmu-3"><path d="m0,0 0,20 3,0 C 7,10 10,0 20,0" class="s6"/><path d="m0,20 3,0 C 7,10 10,0 20,0" class="s1"/><path d="M0,0 20,0" class="s1"/></g><g id="vmz-3"><path d="M0,0 3,0 C 10,10 15,10 20,10 15,10 10,10 3,20 L 0,20" class="s6"/><path d="m0,0 3,0 c 7,10 12,10 17,10" class="s1"/><path d="m0,20 3,0 C 10,10 15,10 20,10" class="s1"/></g><g id="vmv-3-3"><path d="M9,0 20,0 20,20 9,20 6,10 z" class="s6"/><path d="M3,0 0,0 0,20 3,20 6,10 z" class="s6"/><path d="m0,0 3,0 6,20 11,0" class="s1"/><path d="M0,20 3,20 9,0 20,0" class="s1"/></g><g id="vmv-3-4"><path d="M9,0 20,0 20,20 9,20 6,10 z" class="s7"/><path d="M3,0 0,0 0,20 3,20 6,10 z" class="s6"/><path d="m0,0 3,0 6,20 11,0" class="s1"/><path d="M0,20 3,20 9,0 20,0" class="s1"/></g><g id="vmv-3-5"><path d="M9,0 20,0 20,20 9,20 6,10 z" class="s8"/><path d="M3,0 0,0 0,20 3,20 6,10 z" class="s6"/><path d="m0,0 3,0 6,20 11,0" class="s1"/><path d="M0,20 3,20 9,0 20,0" class="s1"/></g><g id="vmv-4-3"><path d="M9,0 20,0 20,20 9,20 6,10 z" class="s6"/><path d="M3,0 0,0 0,20 3,20 6,10 z" class="s7"/><path d="m0,0 3,0 6,20 11,0" class="s1"/><path d="M0,20 3,20 9,0 20,0" class="s1"/></g><g id="vmv-4-4"><path d="M9,0 20,0 20,20 9,20 6,10 z" class="s7"/><path d="M3,0 0,0 0,20 3,20 6,10 z" class="s7"/><path d="m0,0 3,0 6,20 11,0" class="s1"/><path d="M0,20 3,20 9,0 20,0" class="s1"/></g><g id="vmv-4-5"><path d="M9,0 20,0 20,20 9,20 6,10 z" class="s8"/><path d="M3,0 0,0 0,20 3,20 6,10 z" class="s7"/><path d="m0,0 3,0 6,20 11,0" class="s1"/><path d="M0,20 3,20 9,0 20,0" class="s1"/></g><g id="vmv-5-3"><path d="M9,0 20,0 20,20 9,20 6,10 z" class="s6"/><path d="M3,0 0,0 0,20 3,20 6,10 z" class="s8"/><path d="m0,0 3,0 6,20 11,0" class="s1"/><path d="M0,20 3,20 9,0 20,0" class="s1"/></g><g id="vmv-5-4"><path d="M9,0 20,0 20,20 9,20 6,10 z" class="s7"/><path d="M3,0 0,0 0,20 3,20 6,10 z" class="s8"/><path d="m0,0 3,0 6,20 11,0" class="s1"/><path d="M0,20 3,20 9,0 20,0" class="s1"/></g><g id="vmv-5-5"><path d="M9,0 20,0 20,20 9,20 6,10 z" class="s8"/><path d="M3,0 0,0 0,20 3,20 6,10 z" class="s8"/><path d="m0,0 3,0 6,20 11,0" class="s1"/><path d="M0,20 3,20 9,0 20,0" class="s1"/></g><g id="0mv-4"><path d="M9,0 20,0 20,20 3,20 z" class="s7"/><path d="M3,20 9,0 20,0" class="s1"/><path d="m0,20 20,0" class="s1"/></g><g id="1mv-4"><path d="M2.875,0 20,0 20,20 9,20 z" class="s7"/><path d="m3,0 6,20 11,0" class="s1"/><path d="M0,0 20,0" class="s1"/></g><g id="xmv-4"><path d="M9,0 20,0 20,20 9,20 6,10 z" class="s7"/><path d="M0,20 3,20 9,0 20,0" class="s1"/><path d="m0,0 3,0 6,20 11,0" class="s1"/><path d="M0,5 3.5,1.5" class="s2"/><path d="M0,10 4.5,5.5" class="s2"/><path d="M0,15 6,9" class="s2"/><path d="M0,20 4,16" class="s2"/></g><g id="dmv-4"><path d="M9,0 20,0 20,20 3,20 z" class="s7"/><path d="M3,20 9,0 20,0" class="s1"/><path d="m0,20 20,0" class="s1"/></g><g id="umv-4"><path d="M3,0 20,0 20,20 9,20 z" class="s7"/><path d="m3,0 6,20 11,0" class="s1"/><path d="M0,0 20,0" class="s1"/></g><g id="zmv-4"><path d="M9,0 20,0 20,20 9,20 6,10 z" class="s7"/><path d="m6,10 3,10 11,0" class="s1"/><path d="M0,10 6,10 9,0 20,0" class="s1"/></g><g id="0mv-5"><path d="M9,0 20,0 20,20 3,20 z" class="s8"/><path d="M3,20 9,0 20,0" class="s1"/><path d="m0,20 20,0" class="s1"/></g><g id="1mv-5"><path d="M2.875,0 20,0 20,20 9,20 z" class="s8"/><path d="m3,0 6,20 11,0" class="s1"/><path d="M0,0 20,0" class="s1"/></g><g id="xmv-5"><path d="M9,0 20,0 20,20 9,20 6,10 z" class="s8"/><path d="M0,20 3,20 9,0 20,0" class="s1"/><path d="m0,0 3,0 6,20 11,0" class="s1"/><path d="M0,5 3.5,1.5" class="s2"/><path d="M0,10 4.5,5.5" class="s2"/><path d="M0,15 6,9" class="s2"/><path d="M0,20 4,16" class="s2"/></g><g id="dmv-5"><path d="M9,0 20,0 20,20 3,20 z" class="s8"/><path d="M3,20 9,0 20,0" class="s1"/><path d="m0,20 20,0" class="s1"/></g><g id="umv-5"><path d="M3,0 20,0 20,20 9,20 z" class="s8"/><path d="m3,0 6,20 11,0" class="s1"/><path d="M0,0 20,0" class="s1"/></g><g id="zmv-5"><path d="M9,0 20,0 20,20 9,20 6,10 z" class="s8"/><path d="m6,10 3,10 11,0" class="s1"/><path d="M0,10 6,10 9,0 20,0" class="s1"/></g><g id="vvv-4"><path d="M20,20 0,20 0,0 20,0" class="s7"/><path d="m0,20 20,0" class="s1"/><path d="M0,0 20,0" class="s1"/></g><g id="vm0-4"><path d="M0,20 0,0 3,0 9,20" class="s7"/><path d="M0,0 3,0 9,20" class="s1"/><path d="m0,20 20,0" class="s1"/></g><g id="vm1-4"><path d="M0,0 0,20 3,20 9,0" class="s7"/><path d="M0,0 20,0" class="s1"/><path d="M0,20 3,20 9,0" class="s1"/></g><g id="vmx-4"><path d="M0,0 0,20 3,20 6,10 3,0" class="s7"/><path d="m0,0 3,0 6,20 11,0" class="s1"/><path d="M0,20 3,20 9,0 20,0" class="s1"/><path d="m20,15 -5,5" class="s2"/><path d="M20,10 10,20" class="s2"/><path d="M20,5 8,17" class="s2"/><path d="M20,0 7,13" class="s2"/><path d="M15,0 7,8" class="s2"/><path d="M10,0 9,1" class="s2"/></g><g id="vmd-4"><path d="m0,0 0,20 20,0 C 10,20 7,10 3,0" class="s7"/><path d="m0,0 3,0 c 4,10 7,20 17,20" class="s1"/><path d="m0,20 20,0" class="s1"/></g><g id="vmu-4"><path d="m0,0 0,20 3,0 C 7,10 10,0 20,0" class="s7"/><path d="m0,20 3,0 C 7,10 10,0 20,0" class="s1"/><path d="M0,0 20,0" class="s1"/></g><g id="vmz-4"><path d="M0,0 3,0 C 10,10 15,10 20,10 15,10 10,10 3,20 L 0,20" class="s7"/><path d="m0,0 3,0 c 7,10 12,10 17,10" class="s1"/><path d="m0,20 3,0 C 10,10 15,10 20,10" class="s1"/></g><g id="vvv-5"><path d="M20,20 0,20 0,0 20,0" class="s8"/><path d="m0,20 20,0" class="s1"/><path d="M0,0 20,0" class="s1"/></g><g id="vm0-5"><path d="M0,20 0,0 3,0 9,20" class="s8"/><path d="M0,0 3,0 9,20" class="s1"/><path d="m0,20 20,0" class="s1"/></g><g id="vm1-5"><path d="M0,0 0,20 3,20 9,0" class="s8"/><path d="M0,0 20,0" class="s1"/><path d="M0,20 3,20 9,0" class="s1"/></g><g id="vmx-5"><path d="M0,0 0,20 3,20 6,10 3,0" class="s8"/><path d="m0,0 3,0 6,20 11,0" class="s1"/><path d="M0,20 3,20 9,0 20,0" class="s1"/><path d="m20,15 -5,5" class="s2"/><path d="M20,10 10,20" class="s2"/><path d="M20,5 8,17" class="s2"/><path d="M20,0 7,13" class="s2"/><path d="M15,0 7,8" class="s2"/><path d="M10,0 9,1" class="s2"/></g><g id="vmd-5"><path d="m0,0 0,20 20,0 C 10,20 7,10 3,0" class="s8"/><path d="m0,0 3,0 c 4,10 7,20 17,20" class="s1"/><path d="m0,20 20,0" class="s1"/></g><g id="vmu-5"><path d="m0,0 0,20 3,0 C 7,10 10,0 20,0" class="s8"/><path d="m0,20 3,0 C 7,10 10,0 20,0" class="s1"/><path d="M0,0 20,0" class="s1"/></g><g id="vmz-5"><path d="M0,0 3,0 C 10,10 15,10 20,10 15,10 10,10 3,20 L 0,20" class="s8"/><path d="m0,0 3,0 c 7,10 12,10 17,10" class="s1"/><path d="m0,20 3,0 C 10,10 15,10 20,10" class="s1"/></g><g id="Pclk"><path d="M-3,12 0,3 3,12 C 1,11 -1,11 -3,12 z" class="s9"/><path d="M0,20 0,0 20,0" class="s1"/></g><g id="Nclk"><path d="M-3,8 0,17 3,8 C 1,9 -1,9 -3,8 z" class="s9"/><path d="m0,0 0,20 20,0" class="s1"/></g><g id="vvv-2"><path d="M20,20 0,20 0,0 20,0" class="s10"/><path d="m0,20 20,0" class="s1"/><path d="M0,0 20,0" class="s1"/></g><g id="vm0-2"><path d="M0,20 0,0 3,0 9,20" class="s10"/><path d="M0,0 3,0 9,20" class="s1"/><path d="m0,20 20,0" class="s1"/></g><g id="vm1-2"><path d="M0,0 0,20 3,20 9,0" class="s10"/><path d="M0,0 20,0" class="s1"/><path d="M0,20 3,20 9,0" class="s1"/></g><g id="vmx-2"><path d="M0,0 0,20 3,20 6,10 3,0" class="s10"/><path d="m0,0 3,0 6,20 11,0" class="s1"/><path d="M0,20 3,20 9,0 20,0" class="s1"/><path d="m20,15 -5,5" class="s2"/><path d="M20,10 10,20" class="s2"/><path d="M20,5 8,17" class="s2"/><path d="M20,0 7,13" class="s2"/><path d="M15,0 7,8" class="s2"/><path d="M10,0 9,1" class="s2"/></g><g id="vmd-2"><path d="m0,0 0,20 20,0 C 10,20 7,10 3,0" class="s10"/><path d="m0,0 3,0 c 4,10 7,20 17,20" class="s1"/><path d="m0,20 20,0" class="s1"/></g><g id="vmu-2"><path d="m0,0 0,20 3,0 C 7,10 10,0 20,0" class="s10"/><path d="m0,20 3,0 C 7,10 10,0 20,0" class="s1"/><path d="M0,0 20,0" class="s1"/></g><g id="vmz-2"><path d="M0,0 3,0 C 10,10 15,10 20,10 15,10 10,10 3,20 L 0,20" class="s10"/><path d="m0,0 3,0 c 7,10 12,10 17,10" class="s1"/><path d="m0,20 3,0 C 10,10 15,10 20,10" class="s1"/></g><g id="0mv-2"><path d="M9,0 20,0 20,20 3,20 z" class="s10"/><path d="M3,20 9,0 20,0" class="s1"/><path d="m0,20 20,0" class="s1"/></g><g id="1mv-2"><path d="M2.875,0 20,0 20,20 9,20 z" class="s10"/><path d="m3,0 6,20 11,0" class="s1"/><path d="M0,0 20,0" class="s1"/></g><g id="xmv-2"><path d="M9,0 20,0 20,20 9,20 6,10 z" class="s10"/><path d="M0,20 3,20 9,0 20,0" class="s1"/><path d="m0,0 3,0 6,20 11,0" class="s1"/><path d="M0,5 3.5,1.5" class="s2"/><path d="M0,10 4.5,5.5" class="s2"/><path d="M0,15 6,9" class="s2"/><path d="M0,20 4,16" class="s2"/></g><g id="dmv-2"><path d="M9,0 20,0 20,20 3,20 z" class="s10"/><path d="M3,20 9,0 20,0" class="s1"/><path d="m0,20 20,0" class="s1"/></g><g id="umv-2"><path d="M3,0 20,0 20,20 9,20 z" class="s10"/><path d="m3,0 6,20 11,0" class="s1"/><path d="M0,0 20,0" class="s1"/></g><g id="zmv-2"><path d="M9,0 20,0 20,20 9,20 6,10 z" class="s10"/><path d="m6,10 3,10 11,0" class="s1"/><path d="M0,10 6,10 9,0 20,0" class="s1"/></g><g id="vmv-3-2"><path d="M9,0 20,0 20,20 9,20 6,10 z" class="s10"/><path d="M3,0 0,0 0,20 3,20 6,10 z" class="s6"/><path d="m0,0 3,0 6,20 11,0" class="s1"/><path d="M0,20 3,20 9,0 20,0" class="s1"/></g><g id="vmv-4-2"><path d="M9,0 20,0 20,20 9,20 6,10 z" class="s10"/><path d="M3,0 0,0 0,20 3,20 6,10 z" class="s7"/><path d="m0,0 3,0 6,20 11,0" class="s1"/><path d="M0,20 3,20 9,0 20,0" class="s1"/></g><g id="vmv-5-2"><path d="M9,0 20,0 20,20 9,20 6,10 z" class="s10"/><path d="M3,0 0,0 0,20 3,20 6,10 z" class="s8"/><path d="m0,0 3,0 6,20 11,0" class="s1"/><path d="M0,20 3,20 9,0 20,0" class="s1"/></g><g id="vmv-2-3"><path d="M9,0 20,0 20,20 9,20 6,10 z" class="s6"/><path d="M3,0 0,0 0,20 3,20 6,10 z" class="s10"/><path d="m0,0 3,0 6,20 11,0" class="s1"/><path d="M0,20 3,20 9,0 20,0" class="s1"/></g><g id="vmv-2-4"><path d="M9,0 20,0 20,20 9,20 6,10 z" class="s7"/><path d="M3,0 0,0 0,20 3,20 6,10 z" class="s10"/><path d="m0,0 3,0 6,20 11,0" class="s1"/><path d="M0,20 3,20 9,0 20,0" class="s1"/></g><g id="vmv-2-5"><path d="M9,0 20,0 20,20 9,20 6,10 z" class="s8"/><path d="M3,0 0,0 0,20 3,20 6,10 z" class="s10"/><path d="m0,0 3,0 6,20 11,0" class="s1"/><path d="M0,20 3,20 9,0 20,0" class="s1"/></g><g id="vmv-2-2"><path d="M9,0 20,0 20,20 9,20 6,10 z" class="s10"/><path d="M3,0 0,0 0,20 3,20 6,10 z" class="s10"/><path d="m0,0 3,0 6,20 11,0" class="s1"/><path d="M0,20 3,20 9,0 20,0" class="s1"/></g><g id="arrow0"><path d="m-12,-3 9,3 -9,3 c 1,-2 1,-4 0,-6 z" class="s11"/><path d="M0,0 -15,0" class="s12"/></g><marker id="arrowhead" markerHeight="7" markerWidth="10" markerUnits="strokeWidth" viewBox="0 -4 11 8" refX="15" refY="0" orient="auto" style="fill: rgb(0, 65, 196);"><path d="M0 -4 11 0 0 4z"/></marker><marker id="arrowtail" markerHeight="7" markerWidth="10" markerUnits="strokeWidth" viewBox="-11 -4 11 8" refX="-15" refY="0" orient="auto" style="fill: rgb(0, 65, 196);"><path d="M0 -4 -11 0 0 4z"/></marker></defs><g id="waves_0"><g id="lanes_0" transform="translate(60.5, 0.5)"><g id="gmarks_0"><path id="gmark_0_0" d="m 0,0 0,90" style="stroke: rgb(136, 136, 136); stroke-width: 0.5; stroke-dasharray: 1, 3;"/><path id="gmark_1_0" d="m 40,0 0,90" style="stroke: rgb(136, 136, 136); stroke-width: 0.5; stroke-dasharray: 1, 3;"/><path id="gmark_2_0" d="m 80,0 0,90" style="stroke: rgb(136, 136, 136); stroke-width: 0.5; stroke-dasharray: 1, 3;"/><path id="gmark_3_0" d="m 120,0 0,90" style="stroke: rgb(136, 136, 136); stroke-width: 0.5; stroke-dasharray: 1, 3;"/><path id="gmark_4_0" d="m 160,0 0,90" style="stroke: rgb(136, 136, 136); stroke-width: 0.5; stroke-dasharray: 1, 3;"/><path id="gmark_5_0" d="m 200,0 0,90" style="stroke: rgb(136, 136, 136); stroke-width: 0.5; stroke-dasharray: 1, 3;"/><path id="gmark_6_0" d="m 240,0 0,90" style="stroke: rgb(136, 136, 136); stroke-width: 0.5; stroke-dasharray: 1, 3;"/><path id="gmark_7_0" d="m 280,0 0,90" style="stroke: rgb(136, 136, 136); stroke-width: 0.5; stroke-dasharray: 1, 3;"/><path id="gmark_8_0" d="m 320,0 0,90" style="stroke: rgb(136, 136, 136); stroke-width: 0.5; stroke-dasharray: 1, 3;"/><path id="gmark_9_0" d="m 360,0 0,90" style="stroke: rgb(136, 136, 136); stroke-width: 0.5; stroke-dasharray: 1, 3;"/><path id="gmark_10_0" d="m 400,0 0,90" style="stroke: rgb(136, 136, 136); stroke-width: 0.5; stroke-dasharray: 1, 3;"/><path id="gmark_11_0" d="m 440,0 0,90" style="stroke: rgb(136, 136, 136); stroke-width: 0.5; stroke-dasharray: 1, 3;"/><path id="gmark_12_0" d="m 480,0 0,90" style="stroke: rgb(136, 136, 136); stroke-width: 0.5; stroke-dasharray: 1, 3;"/><path id="gmark_13_0" d="m 520,0 0,90" style="stroke: rgb(136, 136, 136); stroke-width: 0.5; stroke-dasharray: 1, 3;"/></g><g id="wavelane_0_0" transform="translate(0,5)"><text x="-10" y="15" class="info" text-anchor="end" xml:space="preserve"><tspan>clk</tspan></text><g id="wavelane_draw_0_0" transform="translate(0, 0)"><use xmlns:xlink="http://www.w3.org/1999/xlink" xlink:href="#000" transform="translate(0)"/><use xmlns:xlink="http://www.w3.org/1999/xlink" xlink:href="#000" transform="translate(20)"/><use xmlns:xlink="http://www.w3.org/1999/xlink" xlink:href="#0m1" transform="translate(40)"/><use xmlns:xlink="http://www.w3.org/1999/xlink" xlink:href="#111" transform="translate(60)"/><use xmlns:xlink="http://www.w3.org/1999/xlink" xlink:href="#111" transform="translate(80)"/><use xmlns:xlink="http://www.w3.org/1999/xlink" xlink:href="#111" transform="translate(100)"/><use xmlns:xlink="http://www.w3.org/1999/xlink" xlink:href="#111" transform="translate(120)"/><use xmlns:xlink="http://www.w3.org/1999/xlink" xlink:href="#111" transform="translate(140)"/><use xmlns:xlink="http://www.w3.org/1999/xlink" xlink:href="#111" transform="translate(160)"/><use xmlns:xlink="http://www.w3.org/1999/xlink" xlink:href="#111" transform="translate(180)"/><use xmlns:xlink="http://www.w3.org/1999/xlink" xlink:href="#111" transform="translate(200)"/><use xmlns:xlink="http://www.w3.org/1999/xlink" xlink:href="#111" transform="translate(220)"/><use xmlns:xlink="http://www.w3.org/1999/xlink" xlink:href="#1m0" transform="translate(240)"/><use xmlns:xlink="http://www.w3.org/1999/xlink" xlink:href="#000" transform="translate(260)"/><use xmlns:xlink="http://www.w3.org/1999/xlink" xlink:href="#000" transform="translate(280)"/><use xmlns:xlink="http://www.w3.org/1999/xlink" xlink:href="#000" transform="translate(300)"/><use xmlns:xlink="http://www.w3.org/1999/xlink" xlink:href="#000" transform="translate(320)"/><use xmlns:xlink="http://www.w3.org/1999/xlink" xlink:href="#000" transform="translate(340)"/><use xmlns:xlink="http://www.w3.org/1999/xlink" xlink:href="#000" transform="translate(360)"/><use xmlns:xlink="http://www.w3.org/1999/xlink" xlink:href="#000" transform="translate(380)"/><use xmlns:xlink="http://www.w3.org/1999/xlink" xlink:href="#000" transform="translate(400)"/><use xmlns:xlink="http://www.w3.org/1999/xlink" xlink:href="#000" transform="translate(420)"/><use xmlns:xlink="http://www.w3.org/1999/xlink" xlink:href="#0m1" transform="translate(440)"/><use xmlns:xlink="http://www.w3.org/1999/xlink" xlink:href="#111" transform="translate(460)"/><use xmlns:xlink="http://www.w3.org/1999/xlink" xlink:href="#111" transform="translate(480)"/><use xmlns:xlink="http://www.w3.org/1999/xlink" xlink:href="#111" transform="translate(500)"/></g></g><g id="wavelane_1_0" transform="translate(0,35)"><text x="-10" y="15" class="info" text-anchor="end" xml:space="preserve"><tspan>D</tspan></text><g id="wavelane_draw_1_0" transform="translate(0, 0)"><use xmlns:xlink="http://www.w3.org/1999/xlink" xlink:href="#000" transform="translate(0)"/><use xmlns:xlink="http://www.w3.org/1999/xlink" xlink:href="#000" transform="translate(20)"/><use xmlns:xlink="http://www.w3.org/1999/xlink" xlink:href="#000" transform="translate(40)"/><use xmlns:xlink="http://www.w3.org/1999/xlink" xlink:href="#000" transform="translate(60)"/><use xmlns:xlink="http://www.w3.org/1999/xlink" xlink:href="#0m1" transform="translate(80)"/><use xmlns:xlink="http://www.w3.org/1999/xlink" xlink:href="#111" transform="translate(100)"/><use xmlns:xlink="http://www.w3.org/1999/xlink" xlink:href="#111" transform="translate(120)"/><use xmlns:xlink="http://www.w3.org/1999/xlink" xlink:href="#111" transform="translate(140)"/><use xmlns:xlink="http://www.w3.org/1999/xlink" xlink:href="#1m0" transform="translate(160)"/><use xmlns:xlink="http://www.w3.org/1999/xlink" xlink:href="#000" transform="translate(180)"/><use xmlns:xlink="http://www.w3.org/1999/xlink" xlink:href="#000" transform="translate(200)"/><use xmlns:xlink="http://www.w3.org/1999/xlink" xlink:href="#000" transform="translate(220)"/><use xmlns:xlink="http://www.w3.org/1999/xlink" xlink:href="#0m1" transform="translate(240)"/><use xmlns:xlink="http://www.w3.org/1999/xlink" xlink:href="#111" transform="translate(260)"/><use xmlns:xlink="http://www.w3.org/1999/xlink" xlink:href="#111" transform="translate(280)"/><use xmlns:xlink="http://www.w3.org/1999/xlink" xlink:href="#111" transform="translate(300)"/><use xmlns:xlink="http://www.w3.org/1999/xlink" xlink:href="#1m0" transform="translate(320)"/><use xmlns:xlink="http://www.w3.org/1999/xlink" xlink:href="#000" transform="translate(340)"/><use xmlns:xlink="http://www.w3.org/1999/xlink" xlink:href="#000" transform="translate(360)"/><use xmlns:xlink="http://www.w3.org/1999/xlink" xlink:href="#000" transform="translate(380)"/><use xmlns:xlink="http://www.w3.org/1999/xlink" xlink:href="#000" transform="translate(400)"/><use xmlns:xlink="http://www.w3.org/1999/xlink" xlink:href="#000" transform="translate(420)"/><use xmlns:xlink="http://www.w3.org/1999/xlink" xlink:href="#000" transform="translate(440)"/><use xmlns:xlink="http://www.w3.org/1999/xlink" xlink:href="#000" transform="translate(460)"/><use xmlns:xlink="http://www.w3.org/1999/xlink" xlink:href="#0m1" transform="translate(480)"/><use xmlns:xlink="http://www.w3.org/1999/xlink" xlink:href="#111" transform="translate(500)"/></g></g><g id="wavelane_2_0" transform="translate(0,65)"><text x="-10" y="15" class="info" text-anchor="end" xml:space="preserve"><tspan>Q</tspan></text><g id="wavelane_draw_2_0" transform="translate(0, 0)"><use xmlns:xlink="http://www.w3.org/1999/xlink" xlink:href="#zzz" transform="translate(0)"/><use xmlns:xlink="http://www.w3.org/1999/xlink" xlink:href="#zzz" transform="translate(20)"/><use xmlns:xlink="http://www.w3.org/1999/xlink" xlink:href="#zm0" transform="translate(40)"/><use xmlns:xlink="http://www.w3.org/1999/xlink" xlink:href="#000" transform="translate(60)"/><use xmlns:xlink="http://www.w3.org/1999/xlink" xlink:href="#000" transform="translate(80)"/><use xmlns:xlink="http://www.w3.org/1999/xlink" xlink:href="#000" transform="translate(100)"/><use xmlns:xlink="http://www.w3.org/1999/xlink" xlink:href="#000" transform="translate(120)"/><use xmlns:xlink="http://www.w3.org/1999/xlink" xlink:href="#000" transform="translate(140)"/><use xmlns:xlink="http://www.w3.org/1999/xlink" xlink:href="#000" transform="translate(160)"/><use xmlns:xlink="http://www.w3.org/1999/xlink" xlink:href="#000" transform="translate(180)"/><use xmlns:xlink="http://www.w3.org/1999/xlink" xlink:href="#000" transform="translate(200)"/><use xmlns:xlink="http://www.w3.org/1999/xlink" xlink:href="#000" transform="translate(220)"/><use xmlns:xlink="http://www.w3.org/1999/xlink" xlink:href="#000" transform="translate(240)"/><use xmlns:xlink="http://www.w3.org/1999/xlink" xlink:href="#000" transform="translate(260)"/><use xmlns:xlink="http://www.w3.org/1999/xlink" xlink:href="#000" transform="translate(280)"/><use xmlns:xlink="http://www.w3.org/1999/xlink" xlink:href="#000" transform="translate(300)"/><use xmlns:xlink="http://www.w3.org/1999/xlink" xlink:href="#000" transform="translate(320)"/><use xmlns:xlink="http://www.w3.org/1999/xlink" xlink:href="#000" transform="translate(340)"/><use xmlns:xlink="http://www.w3.org/1999/xlink" xlink:href="#000" transform="translate(360)"/><use xmlns:xlink="http://www.w3.org/1999/xlink" xlink:href="#000" transform="translate(380)"/><use xmlns:xlink="http://www.w3.org/1999/xlink" xlink:href="#000" transform="translate(400)"/><use xmlns:xlink="http://www.w3.org/1999/xlink" xlink:href="#000" transform="translate(420)"/><use xmlns:xlink="http://www.w3.org/1999/xlink" xlink:href="#000" transform="translate(440)"/><use xmlns:xlink="http://www.w3.org/1999/xlink" xlink:href="#000" transform="translate(460)"/><use xmlns:xlink="http://www.w3.org/1999/xlink" xlink:href="#000" transform="translate(480)"/><use xmlns:xlink="http://www.w3.org/1999/xlink" xlink:href="#000" transform="translate(500)"/></g></g><g id="wavearcs_0"/><g id="wavegaps_0"><g id="wavegap_0_0" transform="translate(0,5)"/><g id="wavegap_1_0" transform="translate(0,35)"/><g id="wavegap_2_0" transform="translate(0,65)"/></g></g><g id="groups_0"><g/></g></g></svg>